[
{
    "model": "basket.contact",
    "pk": 1,
    "fields": {
        "telephone": "+7-888-888-8888",
        "email": "info@geekshop.ru",
        "address": "\u0412 \u043f\u0440\u0435\u0434\u0435\u043b\u0430\u0445 \u041c\u041a\u0410\u0414"
    }
},
{
    "model": "basket.contact",
    "pk": 2,
    "fields": {
        "telephone": "+7-888-888-8889",
        "email": "info2@geekshop.ru",
        "address": "\u0412 \u043f\u0440\u0435\u0434\u0435\u043b\u0430\u0445 \u041c\u043e\u0441\u043a\u0432\u044b"
    }
},
{
    "model": "basket.contact",
    "pk": 3,
    "fields": {
        "telephone": "+7-888-888-8887",
        "email": "info3@geekshop.ru",
        "address": "\u0412 \u043f\u0440\u0435\u0434\u0435\u043b\u0430\u0445 \u041f\u0438\u0442\u0435\u0440\u0430"
    }
}
]
